Lesson 2 Data Wrangling | Introduction to Data Analysis with R
…
download.file("https://raw.githubusercontent.com/jmbuhr/dataIntro20/master/_lectures/lecture2/data/gapminder.csv",
              "data/gapminder.csv")

The folder to download your data to (./data) must be created in advance. This is an example for a relative path (an absolute path would start with / or a drive letter like C:).

Now we can finally load in the data and store it in a variable. When working with file paths, RStudio’s autocompletion is especially helpful. We can trigger it with Tab or Ctrl+Space.

gapminder <- read_csv("data/02/gapminder.csv")

readr will also tell you the datatypes it guessed for the columns. Let’s inspect our dataset:

gapminder

## # A tibble: 1,704 x 6
##    country     continent  year lifeExp      pop gdpPercap
##    <chr>       <chr>     <dbl>   <dbl>    <dbl>     <dbl>
##  1 Afghanistan Asia       1952    28.8  8425333      779.
##  2 Afghanistan Asia       1957    30.3  9240934      821.
##  3 Afghanistan Asia       1962    32.0 10267083      853.
##  4 Afghanistan Asia       1967    34.0 11537966      836.
##  5 Afghanistan Asia       1972    36.1 13079460      740.
##  6 Afghanistan Asia       1977    38.4 14880372      786.
##  7 Afghanistan Asia       1982    39.9 12881816      978.
##  8 Afghanistan Asia       1987    40.8 13867957      852.
##  9 Afghanistan Asia       1992    41.7 16317921      649.
## 10 Afghanistan Asia       1997    41.8 22227415      635.
## # … with 1,694 more rows
…
Figure 2.2: 24

2.4.1 select

The first verb we introduce is used to select columns. And hence, it is called select. The first argument is always the data, followed by an arbitrary number of column names. We can recognize functions the take an arbitrary number of additional arguments by the ... in the autocompletion and help page.

select(gapminder, country, year, pop)

## # A tibble: 1,704 x 3
##    country      year      pop
##    <chr>       <dbl>    <dbl>
##  1 Afghanistan  1952  8425333
##  2 Afghanistan  1957  9240934
##  3 Afghanistan  1962 10267083
##  4 Afghanistan  1967 11537966
##  5 Afghanistan  1972 13079460
##  6 Afghanistan  1977 14880372
##  7 Afghanistan  1982 12881816
##  8 Afghanistan  1987 13867957
##  9 Afghanistan  1992 16317921
## 10 Afghanistan  1997 22227415
## # … with 1,694 more rows
…
Figure 2.3: 25

After selecting columns it is only natural to ask how to select rows. This is achieved with the function filter. For example, we can filter for all years smaller than 2000:

filter(gapminder, year < 2000)

## # A tibble: 1,420 x 6
##    country     continent  year lifeExp      pop gdpPercap
##    <chr>       <chr>     <dbl>   <dbl>    <dbl>     <dbl>
##  1 Afghanistan Asia       1952    28.8  8425333      779.
##  2 Afghanistan Asia       1957    30.3  9240934      821.
##  3 Afghanistan Asia       1962    32.0 10267083      853.
##  4 Afghanistan Asia       1967    34.0 11537966      836.
##  5 Afghanistan Asia       1972    36.1 13079460      740.
##  6 Afghanistan Asia       1977    38.4 14880372      786.
##  7 Afghanistan Asia       1982    39.9 12881816      978.
##  8 Afghanistan Asia       1987    40.8 13867957      852.
##  9 Afghanistan Asia       1992    41.7 16317921      649.
## 10 Afghanistan Asia       1997    41.8 22227415      635.
## # … with 1,410 more rows
…
2.4.3 mutate

We are back at manipulating columns, this time by creating new ones or changing old ones. The dplyr verb that does that is called muate. For example, we might want to calculate the total GDP from the GDP per Capita and the population:

mutate(gapminder, gdp = pop * gdpPercap)

## # A tibble: 1,704 x 7
##    country     continent  year lifeExp      pop gdpPercap          gdp
##    <chr>       <chr>     <dbl>   <dbl>    <dbl>     <dbl>        <dbl>
##  1 Afghanistan Asia       1952    28.8  8425333      779.  6567086330.
##  2 Afghanistan Asia       1957    30.3  9240934      821.  7585448670.
##  3 Afghanistan Asia       1962    32.0 10267083      853.  8758855797.
##  4 Afghanistan Asia       1967    34.0 11537966      836.  9648014150.
##  5 Afghanistan Asia       1972    36.1 13079460      740.  9678553274.
##  6 Afghanistan Asia       1977    38.4 14880372      786. 11697659231.
##  7 Afghanistan Asia       1982    39.9 12881816      978. 12598563401.
##  8 Afghanistan Asia       1987    40.8 13867957      852. 11820990309.
##  9 Afghanistan Asia       1992    41.7 16317921      649. 10595901589.
## 10 Afghanistan Asia       1997    41.8 22227415      635. 14121995875.
## # … with 1,694 more rows
…
And because all main tidyverse functions take data as their first argument, we can chain them together fluently. Additionally, it enables autocompletion of column names inside of the function that gets the data. So back to the gapminder example:

gapminder %>% 
  filter(year > 2000) %>% 
  mutate(gdp = pop * gdpPercap) %>% 
  select(country, year, gdp)

## # A tibble: 284 x 3
##    country      year           gdp
##    <chr>       <dbl>         <dbl>
##  1 Afghanistan  2002  18363410424.
##  2 Afghanistan  2007  31079291949.
##  3 Albania      2002  16153932130.
##  4 Albania      2007  21376411360.
##  5 Algeria      2002 165447670333.
##  6 Algeria      2007 207444851958.
##  7 Angola       2002  30134833901.
##  8 Angola       2007  59583895818.
##  9 Argentina    2002 337223430800.
## 10 Argentina    2007 515033625357.
## # … with 274 more rows

It also reads much nicer in your head, which makes reasoning about the code easier. Without telling you what the above code did, you can understand it, because it reads like English. You can often pronounce the pipe as “and then” in your head, or out-loud, I’m not judging.

Note:

The base-R and the tidyverse way are not mutually exclusive. Sometimes you can mix and match.

2.4.6 arrange

A simple thing you might want from a table is to sort it based on some column. This is what arrange does:

gapminder %>% 
  arrange(year)

## # A tibble: 1,704 x 7
##    country     continent  year lifeExp      pop gdpPercap           gdp
##    <chr>       <chr>     <dbl>   <dbl>    <dbl>     <dbl>         <dbl>
##  1 Afghanistan Asia       1952    28.8  8425333      779.   6567086330.
##  2 Albania     Europe     1952    55.2  1282697     1601.   2053669902.
##  3 Algeria     Africa     1952    43.1  9279525     2449.  22725632678.
##  4 Angola      Africa     1952    30.0  4232095     3521.  14899557133.
##  5 Argentina   Americas   1952    62.5 17876956     5911. 105676319105.
##  6 Australia   Oceania    1952    69.1  8691212    10040.  87256254102.
##  7 Austria     Europe     1952    66.8  6927772     6137.  42516266683.
##  8 Bahrain     Asia       1952    50.9   120447     9867.   1188460759.
##  9 Bangladesh  Asia       1952    37.5 46886859      684.  32082059995.
## 10 Belgium     Europe     1952    68    8730405     8343.  72838686716.
## # … with 1,694 more rows

The helper function desc marks a column to be arranged in descending order. We can arrange by multiple columns, where the first will be most important.

gapminder %>% 
  arrange(desc(year), pop) %>% 
  select(country, year, pop) %>% 
  rename(population = pop)

## # A tibble: 1,704 x 3
##    country                year population
##    <chr>                 <dbl>      <dbl>
##  1 Sao Tome and Principe  2007     199579
##  2 Iceland                2007     301931
##  3 Djibouti               2007     496374
##  4 Equatorial Guinea      2007     551201
##  5 Montenegro             2007     684736
##  6 Bahrain                2007     708573
##  7 Comoros                2007     710960
##  8 Reunion                2007     798094
##  9 Trinidad and Tobago    2007    1056608
## 10 Swaziland              2007    1133066
## # … with 1,694 more rows

I also introduced the rename verb without warning. It does what it says it does, only the order of the names might be confusing. The new name comes first (like when you are creating a new column with mutate). You can also rename within select:

gapminder %>% select(country, year, population = pop)

## # A tibble: 1,704 x 3
##    country      year population
##    <chr>       <dbl>      <dbl>
##  1 Afghanistan  1952    8425333
##  2 Afghanistan  1957    9240934
##  3 Afghanistan  1962   10267083
##  4 Afghanistan  1967   11537966
##  5 Afghanistan  1972   13079460
##  6 Afghanistan  1977   14880372
##  7 Afghanistan  1982   12881816
##  8 Afghanistan  1987   13867957
##  9 Afghanistan  1992   16317921
## 10 Afghanistan  1997   22227415
## # … with 1,694 more rows
…
## # A tibble: 1 x 3
##   last_year average_pop minimal_gdp
##       <dbl>       <dbl>       <dbl>
## 1      2007   29601212.   52784691.

But condensing whole columns into one value, flattening the tibble in the style of Super Mario jumping on mushrooms, is often not what we need. We would rather know the summaries within certain groups. For example the maximal gdp per country. This is what group_by is for.

2.4.8 group_by

group_by is considered an adverb, because it doesn’t change the data itself but it changes how subsequent functions handle the data. For example, if a tibble has groups, all summaries are calculated within these groups:

gapminder %>% 
  group_by(country)

## # A tibble: 1,704 x 7
## # Groups:   country [142]
##    country     continent  year lifeExp      pop gdpPercap          gdp
##    <chr>       <chr>     <dbl>   <dbl>    <dbl>     <dbl>        <dbl>
##  1 Afghanistan Asia       1952    28.8  8425333      779.  6567086330.
##  2 Afghanistan Asia       1957    30.3  9240934      821.  7585448670.
##  3 Afghanistan Asia       1962    32.0 10267083      853.  8758855797.
##  4 Afghanistan Asia       1967    34.0 11537966      836.  9648014150.
##  5 Afghanistan Asia       1972    36.1 13079460      740.  9678553274.
##  6 Afghanistan Asia       1977    38.4 14880372      786. 11697659231.
##  7 Afghanistan Asia       1982    39.9 12881816      978. 12598563401.
##  8 Afghanistan Asia       1987    40.8 13867957      852. 11820990309.
##  9 Afghanistan Asia       1992    41.7 16317921      649. 10595901589.
## 10 Afghanistan Asia       1997    41.8 22227415      635. 14121995875.
## # … with 1,694 more rows

For example, let’s look at the range of the life expectancy for each country:

gapminder %>% 
  group_by(country) %>% 
  summarise(lower_life_exp = min(lifeExp),
            upper_life_exp = max(lifeExp))

## # A tibble: 142 x 3
##    country     lower_life_exp upper_life_exp
##    <chr>                <dbl>          <dbl>
##  1 Afghanistan           28.8           43.8
##  2 Albania               55.2           76.4
##  3 Algeria               43.1           72.3
##  4 Angola                30.0           42.7
##  5 Argentina             62.5           75.3
##  6 Australia             69.1           81.2
##  7 Austria               66.8           79.8
##  8 Bahrain               50.9           75.6
##  9 Bangladesh            37.5           64.1
## 10 Belgium               68             79.4
## # … with 132 more rows

summarize removes one level of grouping. If the data was grouped by multiple features, this means that some groups remain. We can make sure that the data is no longer grouped with ungroup.

gapminder %>% 
  group_by(continent, year) %>% 
  summarise(mean_gdpPercap = mean(gdpPercap)) %>% 
  ungroup()

## # A tibble: 60 x 3
##    continent  year mean_gdpPercap
##    <chr>     <dbl>          <dbl>
##  1 Africa     1952          1253.
##  2 Africa     1957          1385.
##  3 Africa     1962          1598.
##  4 Africa     1967          2050.
##  5 Africa     1972          2340.
##  6 Africa     1977          2586.
##  7 Africa     1982          2482.
##  8 Africa     1987          2283.
##  9 Africa     1992          2282.
## 10 Africa     1997          2379.
## # … with 50 more rows

Groups also work within mutate and filter. For example, we can get all rows where the gdp per Person was highest per country:

gapminder %>%
  group_by(country) %>% 
  filter(gdpPercap == max(gdpPercap))

## # A tibble: 142 x 7
## # Groups:   country [142]
##    country     continent  year lifeExp       pop gdpPercap           gdp
##    <chr>       <chr>     <dbl>   <dbl>     <dbl>     <dbl>         <dbl>
##  1 Afghanistan Asia       1982    39.9  12881816      978.  12598563401.
##  2 Albania     Europe     2007    76.4   3600523     5937.  21376411360.
##  3 Algeria     Africa     2007    72.3  33333216     6223. 207444851958.
##  4 Angola      Africa     1967    36.0   5247469     5523.  28980597822.
##  5 Argentina   Americas   2007    75.3  40301927    12779. 515033625357.
##  6 Australia   Oceania    2007    81.2  20434176    34435. 703658358894.
##  7 Austria     Europe     2007    79.8   8199783    36126. 296229400691.
##  8 Bahrain     Asia       2007    75.6    708573    29796.  21112675360.
##  9 Bangladesh  Asia       2007    64.1 150448339     1391. 209311822134.
## 10 Belgium     Europe     2007    79.4  10392226    33693. 350141166520.
## # … with 132 more rows

Or we can use groups in mutate to find out, what percentage of it’s continent a country’s population makes up per year:

gapminder %>% 
  group_by(continent, year) %>% 
  mutate(pctPop = pop / sum(pop) * 100)

## # A tibble: 1,704 x 8
## # Groups:   continent, year [60]
##    country     continent  year lifeExp      pop gdpPercap          gdp pctPop
##    <chr>       <chr>     <dbl>   <dbl>    <dbl>     <dbl>        <dbl>  <dbl>
##  1 Afghanistan Asia       1952    28.8  8425333      779.  6567086330.  0.604
##  2 Afghanistan Asia       1957    30.3  9240934      821.  7585448670.  0.591
##  3 Afghanistan Asia       1962    32.0 10267083      853.  8758855797.  0.605
##  4 Afghanistan Asia       1967    34.0 11537966      836.  9648014150.  0.605
##  5 Afghanistan Asia       1972    36.1 13079460      740.  9678553274.  0.608
##  6 Afghanistan Asia       1977    38.4 14880372      786. 11697659231.  0.624
##  7 Afghanistan Asia       1982    39.9 12881816      978. 12598563401.  0.494
##  8 Afghanistan Asia       1987    40.8 13867957      852. 11820990309.  0.483
##  9 Afghanistan Asia       1992    41.7 16317921      649. 10595901589.  0.521
## 10 Afghanistan Asia       1997    41.8 22227415      635. 14121995875.  0.657
## # … with 1,694 more rows
…
