Introduction to Data Analysis with R - 6 Distributions, Summaries and Dimensionality Reduction
…
Training data contained 393 data points and 25 incomplete rows. 

Operations:

Removing rows with NA values in danceability, energy, key, loudness, mode, spee... [trained]
Centering and scaling for danceability, energy, key, loudness, mode, spee... [trained]
PCA extraction with danceability, energy, key, loudness, mode, speec... [trained]

We can now explore, how the data looks like in these new dimensions. We do so, by baking the prepared recipe.

songs_baked <- bake(songs_prep, songs)
songs_baked

# A tibble: 368 × 8
   track_name      track_artists track_uri    PC1    PC2     PC3     PC4     PC5
   <fct>           <fct>         <fct>      <dbl>  <dbl>   <dbl>   <dbl>   <dbl>
 1 Africa          TOTO          spotify:…  1.21  -3.32  -0.808   0.0396  0.811 
 2 Take on Me      a-ha          spotify:… -1.43  -1.84  -0.680  -0.400   0.376 
 3 Wake Me Up Bef… Wham!         spotify:…  0.257 -3.23   0.397   0.242  -1.09  
 4 I'm Still Stan… Elton John    spotify:… -1.08  -1.21   1.61    1.76    1.24  
 5 Wolf Totem (fe… The HU;Jacob… spotify:… -1.71   1.26   2.24   -1.74    1.47  
 6 Yuve Yuve Yu    The HU        spotify:… -0.774  0.792 -1.31   -0.446   0.743 
 7 The Search      NF            spotify:… -0.826 -0.511 -0.0294  2.62   -0.0331
 8 Stressed Out    Twenty One P… spotify:… -1.78  -0.647 -0.506   1.66    0.734 
 9 Stressed Out    Twenty One P… spotify:… -1.78  -0.647 -0.506   1.66    0.734 
10 Ride            Twenty One P… spotify:… -1.08  -1.23  -0.907  -0.507  -1.22  
# … with 358 more rows

The original features where replace by Principal Components that explain most of the variance. From the prepared recipe, we extract a tidy form of the step we care about (usually the last one) to see, what happened to our data. We can see, which features ended up contributing to which components by getting the results of the pca step of our recipe.

terms <- tidy(songs_prep, id = "pca") %>% 
  mutate(component = parse_number(component))

terms

# A tibble: 225 × 4
   terms              value component id   
   <chr>              <dbl>     <dbl> <chr>
 1 danceability     -0.226          1 pca  
 2 energy           -0.423          1 pca  
 3 key              -0.0765         1 pca  
 4 loudness         -0.429          1 pca  
 5 mode              0.0942         1 pca  
 6 speechiness      -0.121          1 pca  
 7 acousticness      0.399          1 pca  
 8 instrumentalness  0.370          1 pca  
 9 liveness         -0.118          1 pca  
10 valence          -0.295          1 pca  
# … with 215 more rows
…
