Lesson 7 Fallacies | Introduction to Data Analysis with R
…
So far, we only properly dealt with linear relationships
and now it is time to get non-linear.
We will be creating a mechanistically driven
predictive model, so we have a formula of which
we want to adjust the parameters so that it fits our data.

Let’s take classical Michaelis-Menten-Kinetics
There is a dataset for enzyme reaction rates included in R.
But we convert it from a
dataframe to a tibble so that it prints
nicer:

as_tibble(Puromycin)

## # A tibble: 23 x 3
##     conc  rate state  
##    <dbl> <dbl> <fct>  
##  1  0.02    76 treated
##  2  0.02    47 treated
##  3  0.06    97 treated
##  4  0.06   107 treated
##  5  0.11   123 treated
##  6  0.11   139 treated
##  7  0.22   159 treated
##  8  0.22   152 treated
##  9  0.56   191 treated
## 10  0.56   201 treated
## # … with 13 more rows
…
