Introduction to Data Analysis with R - 7 Fallacies, Correlation and Regression
…
I guess it is the baby yoda show now.

starwars

# A tibble: 87 × 14
   name     height  mass hair_color skin_color eye_color birth_year sex   gender
   <chr>     <int> <dbl> <chr>      <chr>      <chr>          <dbl> <chr> <chr> 
 1 Luke Sk…    172    77 blond      fair       blue            19   male  mascu…
 2 C-3PO       167    75 <NA>       gold       yellow         112   none  mascu…
 3 R2-D2        96    32 <NA>       white, bl… red             33   none  mascu…
 4 Darth V…    202   136 none       white      yellow          41.9 male  mascu…
 5 Leia Or…    150    49 brown      light      brown           19   fema… femin…
 6 Owen La…    178   120 brown, gr… light      blue            52   male  mascu…
 7 Beru Wh…    165    75 brown      light      blue            47   fema… femin…
 8 R5-D4        97    32 <NA>       white, red red             NA   none  mascu…
 9 Biggs D…    183    84 black      light      brown           24   male  mascu…
10 Obi-Wan…    182    77 auburn, w… fair       blue-gray       57   male  mascu…
# … with 77 more rows, and 5 more variables: homeworld <chr>, species <chr>,
#   films <list>, vehicles <list>, starships <list>
…
Its functions make these steps easier.

corrr::correlate(mtcars) %>% 
  corrr::stretch()

# A tibble: 121 × 3
   x     y          r
   <chr> <chr>  <dbl>
 1 mpg   mpg   NA    
 2 mpg   cyl   -0.852
 3 mpg   disp  -0.848
 4 mpg   hp    -0.776
 5 mpg   drat   0.681
 6 mpg   wt    -0.868
 7 mpg   qsec   0.419
 8 mpg   vs     0.664
 9 mpg   am     0.600
10 mpg   gear   0.480
# … with 111 more rows
…
We can interpret \(R^2\) as the fraction of the variance of the response variable y that can be explained by the predictor x.

7.5 Non-linear Least Squares

So far, we only properly dealt with linear relationships and now it is time to get non-linear. We will be creating a mechanistically driven predictive model, so we have a formula of which we want to adjust the parameters so that it fits our data.

Let’s take classical Michaelis-Menten-Kinetics There is a dataset for enzyme reaction rates included in R. But we convert it from a dataframe to a tibble so that it prints nicer:

puromycin <- as_tibble(Puromycin)
puromycin

# A tibble: 23 × 3
    conc  rate state  
   <dbl> <dbl> <fct>  
 1  0.02    76 treated
 2  0.02    47 treated
 3  0.06    97 treated
 4  0.06   107 treated
 5  0.11   123 treated
 6  0.11   139 treated
 7  0.22   159 treated
 8  0.22   152 treated
 9  0.56   191 treated
10  0.56   201 treated
# … with 13 more rows
…
