Lesson 4 Functions | Introduction to Data Analysis with R
…
And now we can combine them into one big dataset
using bind_rows, which stacks tibbles on top of each other.
The extra argument .id determines the name for the column
in which we store the names of the list
items.

my_data %>%
  bind_rows(.id = "continent")

## # A tibble: 1,704 x 6
##    continent country  year lifeExp      pop gdpPercap
##    <chr>     <chr>   <dbl>   <dbl>    <dbl>     <dbl>
##  1 Africa    Algeria  1952    43.1  9279525     2449.
##  2 Africa    Algeria  1957    45.7 10270856     3014.
##  3 Africa    Algeria  1962    48.3 11000948     2551.
##  4 Africa    Algeria  1967    51.4 12760499     3247.
##  5 Africa    Algeria  1972    54.5 14760787     4183.
##  6 Africa    Algeria  1977    58.0 17152804     4910.
##  7 Africa    Algeria  1982    61.4 20033753     5745.
##  8 Africa    Algeria  1987    65.8 23254956     5681.
##  9 Africa    Algeria  1992    67.7 26298373     5023.
## 10 Africa    Algeria  1997    69.2 29072015     4797.
## # … with 1,694 more rows

There is yet another shortcut we can employ. The purrr package contains
various variants of the map function. map itself will always return a list,
whereas variants like map_chr always return an atomic character
vector,map_dbl always returns numbers, map_lgl always return logical (yes or
no, TRUE / FALSE) vectors. Combining a list into one dataframe (by rows) is so
common that there is also a special map function for this: map_dfr.

gapminder <- map_dfr(paths, read_csv, .id = "continent")
gapminder

## # A tibble: 1,704 x 6
##    continent country  year lifeExp      pop gdpPercap
##    <chr>     <chr>   <dbl>   <dbl>    <dbl>     <dbl>
##  1 Africa    Algeria  1952    43.1  9279525     2449.
##  2 Africa    Algeria  1957    45.7 10270856     3014.
##  3 Africa    Algeria  1962    48.3 11000948     2551.
##  4 Africa    Algeria  1967    51.4 12760499     3247.
##  5 Africa    Algeria  1972    54.5 14760787     4183.
##  6 Africa    Algeria  1977    58.0 17152804     4910.
##  7 Africa    Algeria  1982    61.4 20033753     5745.
##  8 Africa    Algeria  1987    65.8 23254956     5681.
##  9 Africa    Algeria  1992    67.7 26298373     5023.
## 10 Africa    Algeria  1997    69.2 29072015     4797.
## # … with 1,694 more rows
…
Let us use the techniques above to shine
light on how life expectancies changed over time.
This time, we will utilize the nested
data format to store our data
alongside models for the data.

nested_gapminder <- gapminder %>%
  nest(-country, -continent) %>% 
  mutate(
    model = map(data, ~ lm(lifeExp ~ year, data = .x))
  )

nested_gapminder

## # A tibble: 142 x 4
##    continent country                  data              model 
##    <chr>     <chr>                    <list>            <list>
##  1 Africa    Algeria                  <tibble [12 × 4]> <lm>  
##  2 Africa    Angola                   <tibble [12 × 4]> <lm>  
##  3 Africa    Benin                    <tibble [12 × 4]> <lm>  
##  4 Africa    Botswana                 <tibble [12 × 4]> <lm>  
##  5 Africa    Burkina Faso             <tibble [12 × 4]> <lm>  
##  6 Africa    Burundi                  <tibble [12 × 4]> <lm>  
##  7 Africa    Cameroon                 <tibble [12 × 4]> <lm>  
##  8 Africa    Central African Republic <tibble [12 × 4]> <lm>  
##  9 Africa    Chad                     <tibble [12 × 4]> <lm>  
## 10 Africa    Comoros                  <tibble [12 × 4]> <lm>  
## # … with 132 more rows

Then, we extract information about the model
with some functions form the broom package.

nested_gapminder %>% 
  mutate(
    glance = map(model, broom::glance)
  )

## # A tibble: 142 x 5
##    continent country                  data              model  glance           
##    <chr>     <chr>                    <list>            <list> <list>           
##  1 Africa    Algeria                  <tibble [12 × 4]> <lm>   <tibble [1 × 12]>
##  2 Africa    Angola                   <tibble [12 × 4]> <lm>   <tibble [1 × 12]>
##  3 Africa    Benin                    <tibble [12 × 4]> <lm>   <tibble [1 × 12]>
##  4 Africa    Botswana                 <tibble [12 × 4]> <lm>   <tibble [1 × 12]>
##  5 Africa    Burkina Faso             <tibble [12 × 4]> <lm>   <tibble [1 × 12]>
##  6 Africa    Burundi                  <tibble [12 × 4]> <lm>   <tibble [1 × 12]>
##  7 Africa    Cameroon                 <tibble [12 × 4]> <lm>   <tibble [1 × 12]>
##  8 Africa    Central African Republic <tibble [12 × 4]> <lm>   <tibble [1 × 12]>
##  9 Africa    Chad                     <tibble [12 × 4]> <lm>   <tibble [1 × 12]>
## 10 Africa    Comoros                  <tibble [12 × 4]> <lm>   <tibble [1 × 12]>
## # … with 132 more rows
…
gapminder_modeled <- nested_gapminder %>% 
  mutate(
    glance = map(model, broom::glance)
  ) %>% 
  unnest(glance) %>% 
  arrange(r.squared)

gapminder_modeled

## # A tibble: 142 x 16
##    continent country data  model r.squared adj.r.squared sigma statistic p.value
##    <chr>     <chr>   <lis> <lis>     <dbl>         <dbl> <dbl>     <dbl>   <dbl>
##  1 Africa    Rwanda  <tib… <lm>     0.0172      -0.0811   6.56     0.175  0.685 
##  2 Africa    Botswa… <tib… <lm>     0.0340      -0.0626   6.11     0.352  0.566 
##  3 Africa    Zimbab… <tib… <lm>     0.0562      -0.0381   7.21     0.596  0.458 
##  4 Africa    Zambia  <tib… <lm>     0.0598      -0.0342   4.53     0.636  0.444 
##  5 Africa    Swazil… <tib… <lm>     0.0682      -0.0250   6.64     0.732  0.412 
##  6 Africa    Lesotho <tib… <lm>     0.0849      -0.00666  5.93     0.927  0.358 
##  7 Africa    Cote d… <tib… <lm>     0.283        0.212    3.93     3.95   0.0748
##  8 Africa    South … <tib… <lm>     0.312        0.244    4.74     4.54   0.0588
##  9 Africa    Uganda  <tib… <lm>     0.342        0.276    3.19     5.20   0.0457
## 10 Africa    Congo,… <tib… <lm>     0.348        0.283    2.43     5.34   0.0434
## # … with 132 more rows, and 7 more variables: df <dbl>, logLik <dbl>,
## #   AIC <dbl>, BIC <dbl>, deviance <dbl>, df.residual <int>, nobs <int>

For a more detailed walk-trough, check
out the chapter on “many models” in
R for Data Science here.31

Let’s use this information to build a
visualization.

non_linear_countries <- gapminder_modeled %>% 
  filter(r.squared < 0.2) %>% 
  unnest(data)

non_linear_countries

## # A tibble: 72 x 19
##    continent country  year lifeExp     pop gdpPercap model  r.squared
##    <chr>     <chr>   <dbl>   <dbl>   <dbl>     <dbl> <list>     <dbl>
##  1 Africa    Rwanda   1952    40   2534927      493. <lm>      0.0172
##  2 Africa    Rwanda   1957    41.5 2822082      540. <lm>      0.0172
##  3 Africa    Rwanda   1962    43   3051242      597. <lm>      0.0172
##  4 Africa    Rwanda   1967    44.1 3451079      511. <lm>      0.0172
##  5 Africa    Rwanda   1972    44.6 3992121      591. <lm>      0.0172
##  6 Africa    Rwanda   1977    45   4657072      670. <lm>      0.0172
##  7 Africa    Rwanda   1982    46.2 5507565      882. <lm>      0.0172
##  8 Africa    Rwanda   1987    44.0 6349365      848. <lm>      0.0172
##  9 Africa    Rwanda   1992    23.6 7290203      737. <lm>      0.0172
## 10 Africa    Rwanda   1997    36.1 7212583      590. <lm>      0.0172
## # … with 62 more rows, and 11 more variables: adj.r.squared <dbl>, sigma <dbl>,
## #   statistic <dbl>, p.value <dbl>, df <dbl>, logLik <dbl>, AIC <dbl>,
## #   BIC <dbl>, deviance <dbl>, df.residual <int>, nobs <int>
…
gapminder %>% 
  mutate(
    continent = str_to_upper(continent),
    country = str_to_upper(country)
  )

## # A tibble: 1,704 x 6
##    continent country  year lifeExp      pop gdpPercap
##    <chr>     <chr>   <dbl>   <dbl>    <dbl>     <dbl>
##  1 AFRICA    ALGERIA  1952    43.1  9279525     2449.
##  2 AFRICA    ALGERIA  1957    45.7 10270856     3014.
##  3 AFRICA    ALGERIA  1962    48.3 11000948     2551.
##  4 AFRICA    ALGERIA  1967    51.4 12760499     3247.
##  5 AFRICA    ALGERIA  1972    54.5 14760787     4183.
##  6 AFRICA    ALGERIA  1977    58.0 17152804     4910.
##  7 AFRICA    ALGERIA  1982    61.4 20033753     5745.
##  8 AFRICA    ALGERIA  1987    65.8 23254956     5681.
##  9 AFRICA    ALGERIA  1992    67.7 26298373     5023.
## 10 AFRICA    ALGERIA  1997    69.2 29072015     4797.
## # … with 1,694 more rows

And now everyone is really shouty.
But we had some repetition in
our code. Wouldn’t it be cool,
to just say: “Apply the function str_to_upper
to these columns.”

gapminder %>% 
  mutate(
    across(c(continent, country), str_to_upper)
  )

## # A tibble: 1,704 x 6
##    continent country  year lifeExp      pop gdpPercap
##    <chr>     <chr>   <dbl>   <dbl>    <dbl>     <dbl>
##  1 AFRICA    ALGERIA  1952    43.1  9279525     2449.
##  2 AFRICA    ALGERIA  1957    45.7 10270856     3014.
##  3 AFRICA    ALGERIA  1962    48.3 11000948     2551.
##  4 AFRICA    ALGERIA  1967    51.4 12760499     3247.
##  5 AFRICA    ALGERIA  1972    54.5 14760787     4183.
##  6 AFRICA    ALGERIA  1977    58.0 17152804     4910.
##  7 AFRICA    ALGERIA  1982    61.4 20033753     5745.
##  8 AFRICA    ALGERIA  1987    65.8 23254956     5681.
##  9 AFRICA    ALGERIA  1992    67.7 26298373     5023.
## 10 AFRICA    ALGERIA  1997    69.2 29072015     4797.
## # … with 1,694 more rows

Not that is raw power!
We can be even more general and ask R to
apply the function to all columns that contain text:

gapminder %>% 
  mutate(
    across(where(is.character), str_to_upper)
  )

## # A tibble: 1,704 x 6
##    continent country  year lifeExp      pop gdpPercap
##    <chr>     <chr>   <dbl>   <dbl>    <dbl>     <dbl>
##  1 AFRICA    ALGERIA  1952    43.1  9279525     2449.
##  2 AFRICA    ALGERIA  1957    45.7 10270856     3014.
##  3 AFRICA    ALGERIA  1962    48.3 11000948     2551.
##  4 AFRICA    ALGERIA  1967    51.4 12760499     3247.
##  5 AFRICA    ALGERIA  1972    54.5 14760787     4183.
##  6 AFRICA    ALGERIA  1977    58.0 17152804     4910.
##  7 AFRICA    ALGERIA  1982    61.4 20033753     5745.
##  8 AFRICA    ALGERIA  1987    65.8 23254956     5681.
##  9 AFRICA    ALGERIA  1992    67.7 26298373     5023.
## 10 AFRICA    ALGERIA  1997    69.2 29072015     4797.
## # … with 1,694 more rows
…
