Introduction to Data Analysis with R - 4 Functional Programming
…
4.2.1 The Imperative Programming Approach

The first solution to our problem is not my favorite one, but I want to show it anyway for the sake of completeness. In general, in Functional Programming, we tell the computer what we want, while in Imperative Programming, we tell the computer what steps to do. So here, we tell R what steps to perform. First, we get a vector of file-path’s with the fs package, which stands for file system. dir_ls means directory list, so we get the contents of a directory. We then create a list to store the dataframes that we are going to read in. We already define the length of the list because making a data structure longer is not R’s strong suit when it doesn’t know how much space to reserve for it. We then iterate over the numbers from 1 to the length of our paths. At each iteration we get the is path, read it and store it in our results list at position i. Finally we bind the list into one dataframe:

paths <- fs::dir_ls("./data/04/")

result <- vector(mode = "list", length = length(paths))
for (i in 1:length(paths)) {
  result[[i]] <- read_csv(paths[i])
}

bind_rows(result)

# A tibble: 1,704 × 5
   country  year lifeExp      pop gdpPercap
   <chr>   <dbl>   <dbl>    <dbl>     <dbl>
 1 Algeria  1952    43.1  9279525     2449.
 2 Algeria  1957    45.7 10270856     3014.
 3 Algeria  1962    48.3 11000948     2551.
 4 Algeria  1967    51.4 12760499     3247.
 5 Algeria  1972    54.5 14760787     4183.
 6 Algeria  1977    58.0 17152804     4910.
 7 Algeria  1982    61.4 20033753     5745.
 8 Algeria  1987    65.8 23254956     5681.
 9 Algeria  1992    67.7 26298373     5023.
10 Algeria  1997    69.2 29072015     4797.
# ℹ 1,694 more rows
…
1:3 + 1:3

[1] 2 4 6

This operation is vectorized. Without us having to tell R to do so, R will add the first element of the first vector to the first element of the second vector and so forth.

Notice, how it looks like the operation happens all at the same time. But in reality, this is not what happens. The computer is just really fast at adding numbers, one after the other.

The mathematical operations in R call another programming language that does the actual addition. This other programming language is closer to the way computers think, making it less fun to write for us humans, but also faster because the instructions are easier to translate into actions for our computer processor.

Remember, we only have to build our own iteration (e.g. with a map function), when we find a task that we want to apply to multiple things, and that is not already vectorized. And as it turns out, the fs and readr packages play very well together, because readr can also just take a vector of file paths and does the combining automatically!

read_csv(paths, id = "continent")

# A tibble: 1,704 × 6
   continent            country  year lifeExp      pop gdpPercap
   <chr>                <chr>   <dbl>   <dbl>    <dbl>     <dbl>
 1 ./data/04/Africa.csv Algeria  1952    43.1  9279525     2449.
 2 ./data/04/Africa.csv Algeria  1957    45.7 10270856     3014.
 3 ./data/04/Africa.csv Algeria  1962    48.3 11000948     2551.
 4 ./data/04/Africa.csv Algeria  1967    51.4 12760499     3247.
 5 ./data/04/Africa.csv Algeria  1972    54.5 14760787     4183.
 6 ./data/04/Africa.csv Algeria  1977    58.0 17152804     4910.
 7 ./data/04/Africa.csv Algeria  1982    61.4 20033753     5745.
 8 ./data/04/Africa.csv Algeria  1987    65.8 23254956     5681.
 9 ./data/04/Africa.csv Algeria  1992    67.7 26298373     5023.
10 ./data/04/Africa.csv Algeria  1997    69.2 29072015     4797.
# ℹ 1,694 more rows
…
