Lesson 3 Tidy Data | Introduction to Data Analysis with R
…
## # A tibble: 2 x 2
##      id df               
##   <int> <list>           
## 1     1 <tibble [10 × 2]>
## 2     2 <tibble [34 × 2]>

We can still use the data nested in there,
as long as we remember how to chain
our subsetting functions together.

# take the column df, take the second element
nested_tibble$df[[2]]

## # A tibble: 34 x 2
##        x     y
##    <dbl> <dbl>
##  1     1  1   
##  2     4  2   
##  3     7  2.65
##  4    10  3.16
##  5    13  3.61
##  6    16  4   
##  7    19  4.36
##  8    22  4.69
##  9    25  5   
## 10    28  5.29
## # … with 24 more rows

A handy way to subsett into nested structures
is with the pluck function:

nested_tibble %>% pluck("df", 2)

## # A tibble: 34 x 2
##        x     y
##    <dbl> <dbl>
##  1     1  1   
##  2     4  2   
##  3     7  2.65
##  4    10  3.16
##  5    13  3.61
##  6    16  4   
##  7    19  4.36
##  8    22  4.69
##  9    25  5   
## 10    28  5.29
## # … with 24 more rows
…
